{
  "name": "deric-accounts",
  "version": "1.1.2",
  "author": "Tomas Barton",
  "summary": "Module for managing user accounts and groups.",
  "license": "Apache-2.0",
  "source": "https://github.com/deric/puppet-accounts",
  "project_page": "https://github.com/deric/puppet-accounts",
  "issues_url": "https://github.com/deric/puppet-accounts/issues",
  "description": "Simple user management with hiera support.",
  "operatingsystem_support": [
    {
      "operatingsystem": "RedHat",
      "operatingsystemrelease": [
        "6",
        "7"
      ]
    },
    {
      "operatingsystem": "CentOS",
      "operatingsystemrelease": [
        "6",
        "7"
      ]
    },
    {
      "operatingsystem": "Debian",
      "operatingsystemrelease": [
        "6",
        "7"
      ]
    },
    {
      "operatingsystem": "Ubuntu",
      "operatingsystemrelease": [
        "10.04",
        "12.04",
        "14.04"
      ]
    }
  ],
  "dependencies": [
    {"name":"puppetlabs/stdlib","version_requirement":">= 4.2.0"}
  ]
}
